﻿57/ Дубровина Ксения Андрияновна/ ср. бал: 3,400000
56/ Убыш Эмиль Платонович/ ср. бал: 4,400000
2/ Карчагина Лилия Борисовна/ ср. бал: 4,800000
32/ Мосякова Лилия Владленовна/ ср. бал: 4,000000
26/ Потёмкин Юрий Климентович/ ср. бал: 3,200000
25/ Савватимов Евгений Иннокентиевич/ ср. бал: 4,200000
9/ Бруевича Эмма Александровна/ ср. бал: 3,800000
8/ Кожевин Артем Леонтиевич/ ср. бал: 4,600000
27/ Батрутдинова Виктория Ефимовна/ ср. бал: 4,600000
20/ Рыкова Ксения Елисеевна/ ср. бал: 3,400000
84/ Зайцев Лавр Ипполитович/ ср. бал: 4,000000
18/ Гришко Василиса Иосифовна/ ср. бал: 4,000000
68/ Подчасов Дмитрий Артемович/ ср. бал: 4,400000
21/ Янкелевича Диана Мефодиевна/ ср. бал: 4,400000
45/ Замятнин Егор Эрнстович/ ср. бал: 5,600000
58/ Кемоклидзе Руслан Вадимович/ ср. бал: 4,800000
79/ Худовекова Агния Марковна/ ср. бал: 3,400000
47/ Вольпова Инесса Павеловна/ ср. бал: 3,800000
80/ Поварницына Оксана Афанасиевна/ ср. бал: 4,400000
90/ Сподарева Дарья Константиновна/ ср. бал: 3,400000
3/ Колотушкина Виктория Владленовна/ ср. бал: 3,400000
40/ Веселова Владислава Феликсовна/ ср. бал: 3,600000
76/ Бурдаков Павел Ефремович/ ср. бал: 4,000000
19/ Полтанов Иван Ильевич/ ср. бал: 3,400000
48/ Ясько Вероника Игоревна/ ср. бал: 4,800000
37/ Клепахов Руслан Эдуардович/ ср. бал: 3,400000
60/ Братцев Евгений Эрнстович/ ср. бал: 4,400000
16/ Белорусов Алексей Ульянович/ ср. бал: 4,200000
67/ Касимова Полина Николаевна/ ср. бал: 4,000000
75/ Селезнева Оксана Федотовна/ ср. бал: 3,000000

